Is there a relationship between antidepressant prescriptions and SIMD deprivation level in Scotland’s major cities (Glasgow, Edinburgh, Dundee and Aberdeen)?
…
CA <- read_csv(here("data", "CAarea.csv")) %>% 
  select(CA, CAName) %>% 
  filter(str_to_lower(CAName) %in% str_to_lower(c("city of Edinburgh", "Aberdeen city", "Glasgow city", "Dundee city")))

SIMD_CA <- left_join(CA, SIMD, by = c("CA" = "CA"))

Combined_data <- left_join(SIMD_CA, GeoInfo_24, by = c("DataZone" = "DataZone"))

Combined_data %>% 
  filter(is.na(GPPractice)) %>%
  select(DataZone) %>%
  distinct()

## # A tibble: 1,635 × 1
##    DataZone 
##    <chr>    
##  1 S01006506
##  2 S01006507
##  3 S01006508
##  4 S01006509
##  5 S01006510
##  6 S01006512
##  7 S01006513
##  8 S01006514
##  9 S01006515
## 10 S01006517
## # ℹ 1,625 more rows
…
